{
  "packages": [
    "packages/*"
  ],
  "command": {
    "init": {
      "exact": true
    },
    "publish": {
      "message": "chore(release): publish %s"
    }
  },
  "npmClient": "yarn",
  "useWorkspaces": true,
  "version": "2.10.1"
}
